<svg xmlns="http://www.w3.org/2000/svg" width="40" height="40" viewBox="0 0 40 40">
  <g id="Group_871" data-name="Group 871" transform="translate(-366.263 -464.358)">
    <circle id="Ellipse_69" data-name="Ellipse 69" cx="20" cy="20" r="20" transform="translate(366.263 464.358)" fill="#fff"/>
    <g id="Group_603" data-name="Group 603" transform="translate(377.16 475.372)">
      <circle id="Ellipse_50" data-name="Ellipse 50" cx="3.981" cy="3.981" r="3.981" transform="translate(0 8.607)" fill="#383838"/>
      <circle id="Ellipse_51" data-name="Ellipse 51" cx="3.981" cy="3.981" r="3.981" transform="translate(9.953 8.607)" fill="#383838"/>
      <circle id="Ellipse_52" data-name="Ellipse 52" cx="3.981" cy="3.981" r="3.981" transform="translate(4.969)" fill="#383838"/>
    </g>
  </g>
</svg>
